<?xml version="1.0" encoding="UTF-8" standalone="no"?>
<!DOCTYPE svg PUBLIC "-//W3C//DTD SVG 1.1//EN"
 "http://www.w3.org/Graphics/SVG/1.1/DTD/svg11.dtd">
<!-- Generated by graphviz version 2.43.0 (0)
 -->
<!-- Title: MyGraph Pages: 1 -->
<svg width="470pt" height="476pt"
 viewBox="0.00 0.00 469.52 476.00" xmlns="http://www.w3.org/2000/svg" xmlns:xlink="http://www.w3.org/1999/xlink">
<g id="graph0" class="graph" transform="scale(1 1) rotate(0) translate(4 472)">
<title>MyGraph</title>
<polygon fill="white" stroke="transparent" points="-4,4 -4,-472 465.52,-472 465.52,4 -4,4"/>
<!-- 0 -->
<g id="node1" class="node">
<title>0</title>
<ellipse fill="none" stroke="black" cx="264.52" cy="-450" rx="27" ry="18"/>
<text text-anchor="middle" x="264.52" y="-446.3" font-family="Times,serif" font-size="14.00">0</text>
</g>
<!-- 2 -->
<g id="node3" class="node">
<title>2</title>
<ellipse fill="none" stroke="black" cx="292.52" cy="-378" rx="27" ry="18"/>
<text text-anchor="middle" x="292.52" y="-374.3" font-family="Times,serif" font-size="14.00">2</text>
</g>
<!-- 0&#45;&#45;2 -->
<g id="edge1" class="edge">
<title>0&#45;&#45;2</title>
<path fill="none" stroke="black" d="M271.16,-432.41C275.62,-421.25 281.48,-406.6 285.93,-395.47"/>
</g>
<!-- 3 -->
<g id="node4" class="node">
<title>3</title>
<ellipse fill="none" stroke="black" cx="144.52" cy="-306" rx="27" ry="18"/>
<text text-anchor="middle" x="144.52" y="-302.3" font-family="Times,serif" font-size="14.00">3</text>
</g>
<!-- 0&#45;&#45;3 -->
<g id="edge2" class="edge">
<title>0&#45;&#45;3</title>
<path fill="none" stroke="black" d="M251.91,-434.07C228.92,-406.87 180.46,-349.52 157.33,-322.16"/>
</g>
<!-- 4 -->
<g id="node5" class="node">
<title>4</title>
<ellipse fill="none" stroke="black" cx="406.52" cy="-306" rx="27" ry="18"/>
<text text-anchor="middle" x="406.52" y="-302.3" font-family="Times,serif" font-size="14.00">4</text>
</g>
<!-- 0&#45;&#45;4 -->
<g id="edge3" class="edge">
<title>0&#45;&#45;4</title>
<path fill="none" stroke="black" d="M281.73,-435.97C294.98,-425.65 313.52,-410.58 328.52,-396 353.56,-371.65 379.74,-340.39 394.51,-322.14"/>
</g>
<!-- 5 -->
<g id="node6" class="node">
<title>5</title>
<ellipse fill="none" stroke="black" cx="237.52" cy="-234" rx="27" ry="18"/>
<text text-anchor="middle" x="237.52" y="-230.3" font-family="Times,serif" font-size="14.00">5</text>
</g>
<!-- 0&#45;&#45;5 -->
<g id="edge4" class="edge">
<title>0&#45;&#45;5</title>
<path fill="none" stroke="black" d="M261.79,-431.83C260.17,-421.47 258.13,-407.99 256.52,-396 249.51,-343.84 242.6,-281.97 239.39,-252.42"/>
</g>
<!-- 7 -->
<g id="node8" class="node">
<title>7</title>
<ellipse fill="none" stroke="black" cx="51.52" cy="-162" rx="27" ry="18"/>
<text text-anchor="middle" x="51.52" y="-158.3" font-family="Times,serif" font-size="14.00">7</text>
</g>
<!-- 0&#45;&#45;7 -->
<g id="edge5" class="edge">
<title>0&#45;&#45;7</title>
<path fill="none" stroke="black" d="M237.77,-446.29C186.23,-440.46 76.23,-424.87 53.52,-396 2.37,-330.99 31.66,-221.16 45.52,-179.6"/>
</g>
<!-- 9 -->
<g id="node10" class="node">
<title>9</title>
<ellipse fill="none" stroke="black" cx="313.52" cy="-18" rx="27" ry="18"/>
<text text-anchor="middle" x="313.52" y="-14.3" font-family="Times,serif" font-size="14.00">9</text>
</g>
<!-- 0&#45;&#45;9 -->
<g id="edge6" class="edge">
<title>0&#45;&#45;9</title>
<path fill="none" stroke="black" d="M289.87,-443.39C343.08,-429.97 461.52,-390.69 461.52,-307 461.52,-307 461.52,-307 461.52,-161 461.52,-92.28 377.4,-46.47 336,-28.08"/>
</g>
<!-- 1 -->
<g id="node2" class="node">
<title>1</title>
<ellipse fill="none" stroke="black" cx="89.52" cy="-378" rx="27" ry="18"/>
<text text-anchor="middle" x="89.52" y="-374.3" font-family="Times,serif" font-size="14.00">1</text>
</g>
<!-- 1&#45;&#45;3 -->
<g id="edge7" class="edge">
<title>1&#45;&#45;3</title>
<path fill="none" stroke="black" d="M101.46,-361.81C110.68,-350.07 123.39,-333.89 132.61,-322.16"/>
</g>
<!-- 1&#45;&#45;5 -->
<g id="edge8" class="edge">
<title>1&#45;&#45;5</title>
<path fill="none" stroke="black" d="M112.05,-367.57C131.77,-358.51 160.33,-343.36 180.52,-324 202.91,-302.54 220.58,-270.63 230,-251.42"/>
</g>
<!-- 1&#45;&#45;7 -->
<g id="edge9" class="edge">
<title>1&#45;&#45;7</title>
<path fill="none" stroke="black" d="M84.5,-359.93C81.59,-349.6 78.02,-336.12 75.52,-324 64.8,-271.96 56.88,-209.53 53.43,-180.03"/>
</g>
<!-- 8 -->
<g id="node9" class="node">
<title>8</title>
<ellipse fill="none" stroke="black" cx="239.52" cy="-90" rx="27" ry="18"/>
<text text-anchor="middle" x="239.52" y="-86.3" font-family="Times,serif" font-size="14.00">8</text>
</g>
<!-- 1&#45;&#45;8 -->
<g id="edge10" class="edge">
<title>1&#45;&#45;8</title>
<path fill="none" stroke="black" d="M91.47,-359.78C93.93,-341.48 99.04,-311.95 108.52,-288 138.15,-213.15 199.2,-137.44 226.19,-106.06"/>
</g>
<!-- 1&#45;&#45;9 -->
<g id="edge11" class="edge">
<title>1&#45;&#45;9</title>
<path fill="none" stroke="black" d="M76.47,-361.91C44.46,-322.99 -32.01,-217.13 15.52,-144 76.97,-49.45 225.63,-26.31 286.68,-20.74"/>
</g>
<!-- 2&#45;&#45;3 -->
<g id="edge12" class="edge">
<title>2&#45;&#45;3</title>
<path fill="none" stroke="black" d="M271,-366.82C242.94,-353.55 194.14,-330.47 166.07,-317.19"/>
</g>
<!-- 2&#45;&#45;5 -->
<g id="edge13" class="edge">
<title>2&#45;&#45;5</title>
<path fill="none" stroke="black" d="M286.1,-360.43C275.56,-333.22 254.69,-279.33 244.07,-251.9"/>
</g>
<!-- 2&#45;&#45;8 -->
<g id="edge14" class="edge">
<title>2&#45;&#45;8</title>
<path fill="none" stroke="black" d="M291.34,-359.95C289.12,-330.42 283.59,-267.95 273.52,-216 265.9,-176.7 252.44,-131.62 244.95,-107.8"/>
</g>
<!-- 2&#45;&#45;9 -->
<g id="edge15" class="edge">
<title>2&#45;&#45;9</title>
<path fill="none" stroke="black" d="M300.9,-360.83C319.41,-323.25 361.22,-226.88 349.52,-144 343.9,-104.2 328.69,-59.31 319.95,-35.66"/>
</g>
<!-- 3&#45;&#45;5 -->
<g id="edge16" class="edge">
<title>3&#45;&#45;5</title>
<path fill="none" stroke="black" d="M162.01,-291.83C178.64,-279.32 203.51,-260.6 220.11,-248.11"/>
</g>
<!-- 3&#45;&#45;8 -->
<g id="edge17" class="edge">
<title>3&#45;&#45;8</title>
<path fill="none" stroke="black" d="M151.82,-288.56C169.5,-248.73 214.49,-147.38 232.2,-107.49"/>
</g>
<!-- 3&#45;&#45;9 -->
<g id="edge18" class="edge">
<title>3&#45;&#45;9</title>
<path fill="none" stroke="black" d="M144.1,-287.86C143.99,-246.02 149.26,-137.32 203.52,-72 225.33,-45.75 263.21,-31.55 288.33,-24.63"/>
</g>
<!-- 4&#45;&#45;5 -->
<g id="edge19" class="edge">
<title>4&#45;&#45;5</title>
<path fill="none" stroke="black" d="M384.08,-295.7C351.67,-282.28 292.1,-257.61 259.79,-244.22"/>
</g>
<!-- 4&#45;&#45;9 -->
<g id="edge20" class="edge">
<title>4&#45;&#45;9</title>
<path fill="none" stroke="black" d="M409.11,-287.85C414.36,-247.33 422.57,-143.72 382.52,-72 371.77,-52.74 350.84,-38.21 334.84,-29.28"/>
</g>
<!-- 6 -->
<g id="node7" class="node">
<title>6</title>
<ellipse fill="none" stroke="black" cx="313.52" cy="-162" rx="27" ry="18"/>
<text text-anchor="middle" x="313.52" y="-158.3" font-family="Times,serif" font-size="14.00">6</text>
</g>
<!-- 5&#45;&#45;6 -->
<g id="edge21" class="edge">
<title>5&#45;&#45;6</title>
<path fill="none" stroke="black" d="M252.9,-218.83C266.09,-206.69 284.99,-189.28 298.16,-177.14"/>
</g>
<!-- 5&#45;&#45;7 -->
<g id="edge22" class="edge">
<title>5&#45;&#45;7</title>
<path fill="none" stroke="black" d="M214.34,-224.28C178.5,-210.79 110.07,-185.03 74.41,-171.61"/>
</g>
<!-- 5&#45;&#45;8 -->
<g id="edge23" class="edge">
<title>5&#45;&#45;8</title>
<path fill="none" stroke="black" d="M237.76,-215.87C238.15,-188.58 238.89,-135.52 239.28,-108.19"/>
</g>
<!-- 6&#45;&#45;8 -->
<g id="edge24" class="edge">
<title>6&#45;&#45;8</title>
<path fill="none" stroke="black" d="M298.55,-146.83C285.71,-134.69 267.31,-117.28 254.47,-105.14"/>
</g>
<!-- 6&#45;&#45;9 -->
<g id="edge25" class="edge">
<title>6&#45;&#45;9</title>
<path fill="none" stroke="black" d="M313.52,-143.87C313.52,-116.58 313.52,-63.52 313.52,-36.19"/>
</g>
<!-- 8&#45;&#45;9 -->
<g id="edge26" class="edge">
<title>8&#45;&#45;9</title>
<path fill="none" stroke="black" d="M254.5,-74.83C267.34,-62.69 285.74,-45.28 298.57,-33.14"/>
</g>
</g>
</svg>
